mc23_13p6TeV.513093.MGPy8EG_Wenu_FxFx3jHT2bias_SW_BFilter.recon.AOD.e8514_s4162_r14622
mc23_13p6TeV.513093.MGPy8EG_Wenu_FxFx3jHT2bias_SW_BFilter.recon.AOD.e8514_s4159_r15224
mc23_13p6TeV.513094.MGPy8EG_Wenu_FxFx3jHT2bias_SW_CFilterBVeto.recon.AOD.e8514_s4162_r14622
mc23_13p6TeV.513094.MGPy8EG_Wenu_FxFx3jHT2bias_SW_CFilterBVeto.recon.AOD.e8514_s4159_r15224
mc23_13p6TeV.513095.MGPy8EG_Wenu_FxFx3jHT2bias_SW_CVetoBVeto.recon.AOD.e8514_s4162_r14622
mc23_13p6TeV.513095.MGPy8EG_Wenu_FxFx3jHT2bias_SW_CVetoBVeto.recon.AOD.e8514_s4159_r15224
mc23_13p6TeV.513096.MGPy8EG_Wmunu_FxFx3jHT2bias_SW_BFilter.recon.AOD.e8514_s4162_r14622
mc23_13p6TeV.513096.MGPy8EG_Wmunu_FxFx3jHT2bias_SW_BFilter.recon.AOD.e8514_s4159_r15224
mc23_13p6TeV.513097.MGPy8EG_Wmunu_FxFx3jHT2bias_SW_CFilterBVeto.recon.AOD.e8514_s4162_r14622
mc23_13p6TeV.513097.MGPy8EG_Wmunu_FxFx3jHT2bias_SW_CFilterBVeto.recon.AOD.e8514_s4159_r15224
mc23_13p6TeV.513098.MGPy8EG_Wmunu_FxFx3jHT2bias_SW_CVetoBVeto.recon.AOD.e8514_s4162_r14622
mc23_13p6TeV.513098.MGPy8EG_Wmunu_FxFx3jHT2bias_SW_CVetoBVeto.recon.AOD.e8514_s4159_r15224
mc23_13p6TeV.513099.MGPy8EG_Wtaunu_L_FxFx3jHT2bias_SW_BFilter.recon.AOD.e8514_s4162_r14622
mc23_13p6TeV.513099.MGPy8EG_Wtaunu_L_FxFx3jHT2bias_SW_BFilter.recon.AOD.e8514_s4159_r15224
mc23_13p6TeV.513100.MGPy8EG_Wtaunu_L_FxFx3jHT2bias_SW_CFilterBVeto.recon.AOD.e8514_s4162_r14622
mc23_13p6TeV.513100.MGPy8EG_Wtaunu_L_FxFx3jHT2bias_SW_CFilterBVeto.recon.AOD.e8514_s4159_r15224
mc23_13p6TeV.513101.MGPy8EG_Wtaunu_L_FxFx3jHT2bias_SW_CVetoBVeto.recon.AOD.e8514_s4162_r14622
mc23_13p6TeV.513101.MGPy8EG_Wtaunu_L_FxFx3jHT2bias_SW_CVetoBVeto.recon.AOD.e8514_s4159_r15224
mc23_13p6TeV.513102.MGPy8EG_Wtaunu_H_FxFx3jHT2bias_SW_BFilter.recon.AOD.e8514_s4162_r14622
mc23_13p6TeV.513102.MGPy8EG_Wtaunu_H_FxFx3jHT2bias_SW_BFilter.recon.AOD.e8514_s4159_r15224
mc23_13p6TeV.513103.MGPy8EG_Wtaunu_H_FxFx3jHT2bias_SW_CFilterBVeto.recon.AOD.e8514_s4162_r14622
mc23_13p6TeV.513103.MGPy8EG_Wtaunu_H_FxFx3jHT2bias_SW_CFilterBVeto.recon.AOD.e8514_s4159_r15224
mc23_13p6TeV.513104.MGPy8EG_Wtaunu_H_FxFx3jHT2bias_SW_CVetoBVeto.recon.AOD.e8514_s4162_r14622
mc23_13p6TeV.513104.MGPy8EG_Wtaunu_H_FxFx3jHT2bias_SW_CVetoBVeto.recon.AOD.e8514_s4159_r15224
mc23_13p6TeV.513105.MGPy8EG_Zee_FxFx3jHT2bias_SW_BFilter.recon.AOD.e8514_s4162_r14622
mc23_13p6TeV.513105.MGPy8EG_Zee_FxFx3jHT2bias_SW_BFilter.recon.AOD.e8514_s4159_r15224
mc23_13p6TeV.513106.MGPy8EG_Zee_FxFx3jHT2bias_SW_CFilterBVeto.recon.AOD.e8514_s4162_r14622
mc23_13p6TeV.513106.MGPy8EG_Zee_FxFx3jHT2bias_SW_CFilterBVeto.recon.AOD.e8514_s4159_r15224
mc23_13p6TeV.513107.MGPy8EG_Zee_FxFx3jHT2bias_SW_CVetoBVeto.recon.AOD.e8514_s4162_r14622
mc23_13p6TeV.513107.MGPy8EG_Zee_FxFx3jHT2bias_SW_CVetoBVeto.recon.AOD.e8514_s4159_r15224
mc23_13p6TeV.513108.MGPy8EG_Zmumu_FxFx3jHT2bias_SW_BFilter.recon.AOD.e8514_s4162_r14622
mc23_13p6TeV.513108.MGPy8EG_Zmumu_FxFx3jHT2bias_SW_BFilter.recon.AOD.e8514_s4159_r15224
mc23_13p6TeV.513109.MGPy8EG_Zmumu_FxFx3jHT2bias_SW_CFilterBVeto.recon.AOD.e8514_s4162_r14622
mc23_13p6TeV.513109.MGPy8EG_Zmumu_FxFx3jHT2bias_SW_CFilterBVeto.recon.AOD.e8514_s4159_r15224
mc23_13p6TeV.513110.MGPy8EG_Zmumu_FxFx3jHT2bias_SW_CVetoBVeto.recon.AOD.e8514_s4162_r14622
mc23_13p6TeV.513110.MGPy8EG_Zmumu_FxFx3jHT2bias_SW_CVetoBVeto.recon.AOD.e8514_s4159_r15224
mc23_13p6TeV.513111.MGPy8EG_Ztautau_FxFx3jHT2bias_SW_BFilter.recon.AOD.e8514_s4162_r14622
mc23_13p6TeV.513111.MGPy8EG_Ztautau_FxFx3jHT2bias_SW_BFilter.recon.AOD.e8514_s4159_r15224
mc23_13p6TeV.513112.MGPy8EG_Ztautau_FxFx3jHT2bias_SW_CFilterBVeto.recon.AOD.e8514_s4162_r14622
mc23_13p6TeV.513112.MGPy8EG_Ztautau_FxFx3jHT2bias_SW_CFilterBVeto.recon.AOD.e8514_s4159_r15224
mc23_13p6TeV.513113.MGPy8EG_Ztautau_FxFx3jHT2bias_SW_CVetoBVeto.recon.AOD.e8514_s4162_r14622
mc23_13p6TeV.513113.MGPy8EG_Ztautau_FxFx3jHT2bias_SW_CVetoBVeto.recon.AOD.e8514_s4159_r15224
mc23_13p6TeV.513114.MGPy8EG_Znunu_FxFx3jHT2bias_SW_pTvv70_BFilter.recon.AOD.e8514_s4162_r14622
mc23_13p6TeV.513114.MGPy8EG_Znunu_FxFx3jHT2bias_SW_pTvv70_BFilter.recon.AOD.e8514_s4159_r15224
mc23_13p6TeV.513115.MGPy8EG_Znunu_FxFx3jHT2bias_SW_pTvv70_CFilterBVeto.recon.AOD.e8514_s4162_r14622
mc23_13p6TeV.513115.MGPy8EG_Znunu_FxFx3jHT2bias_SW_pTvv70_CFilterBVeto.recon.AOD.e8514_s4159_r15224
mc23_13p6TeV.513116.MGPy8EG_Znunu_FxFx3jHT2bias_SW_pTvv70_CVetoBVeto.recon.AOD.e8514_s4162_r14622
mc23_13p6TeV.513116.MGPy8EG_Znunu_FxFx3jHT2bias_SW_pTvv70_CVetoBVeto.recon.AOD.e8514_s4159_r15224
mc23_13p6TeV.513117.MGPy8EG_Zee_FxFx3jHT2bias_SW_105M_BFilter.recon.AOD.e8514_s4162_r14622
mc23_13p6TeV.513117.MGPy8EG_Zee_FxFx3jHT2bias_SW_105M_BFilter.recon.AOD.e8514_s4159_r15224
mc23_13p6TeV.513118.MGPy8EG_Zee_FxFx3jHT2bias_SW_105M_CFilterBVeto.recon.AOD.e8514_s4162_r14622
mc23_13p6TeV.513118.MGPy8EG_Zee_FxFx3jHT2bias_SW_105M_CFilterBVeto.recon.AOD.e8514_s4159_r15224
mc23_13p6TeV.513119.MGPy8EG_Zee_FxFx3jHT2bias_SW_105M_CVetoBVeto.recon.AOD.e8514_s4162_r14622
mc23_13p6TeV.513119.MGPy8EG_Zee_FxFx3jHT2bias_SW_105M_CVetoBVeto.recon.AOD.e8514_s4159_r15224
mc23_13p6TeV.513120.MGPy8EG_Zmumu_FxFx3jHT2bias_SW_105M_BFilter.recon.AOD.e8514_s4162_r14622
mc23_13p6TeV.513120.MGPy8EG_Zmumu_FxFx3jHT2bias_SW_105M_BFilter.recon.AOD.e8514_s4159_r15224
mc23_13p6TeV.513121.MGPy8EG_Zmumu_FxFx3jHT2bias_SW_105M_CFilterBVeto.recon.AOD.e8514_s4162_r14622
mc23_13p6TeV.513121.MGPy8EG_Zmumu_FxFx3jHT2bias_SW_105M_CFilterBVeto.recon.AOD.e8514_s4159_r15224
mc23_13p6TeV.513122.MGPy8EG_Zmumu_FxFx3jHT2bias_SW_105M_CVetoBVeto.recon.AOD.e8514_s4162_r14622
mc23_13p6TeV.513122.MGPy8EG_Zmumu_FxFx3jHT2bias_SW_105M_CVetoBVeto.recon.AOD.e8514_s4159_r15224
mc23_13p6TeV.513123.MGPy8EG_Zee_FxFx3jHT2bias_SW_10M40_BFilter.recon.AOD.e8514_s4162_r14622
mc23_13p6TeV.513123.MGPy8EG_Zee_FxFx3jHT2bias_SW_10M40_BFilter.recon.AOD.e8514_s4159_r15224
mc23_13p6TeV.513124.MGPy8EG_Zee_FxFx3jHT2bias_SW_10M40_CFilterBVeto.recon.AOD.e8514_s4162_r14622
mc23_13p6TeV.513124.MGPy8EG_Zee_FxFx3jHT2bias_SW_10M40_CFilterBVeto.recon.AOD.e8514_s4159_r15224
mc23_13p6TeV.513125.MGPy8EG_Zee_FxFx3jHT2bias_SW_10M40_CVetoBVeto.recon.AOD.e8514_s4162_r14622
mc23_13p6TeV.513125.MGPy8EG_Zee_FxFx3jHT2bias_SW_10M40_CVetoBVeto.recon.AOD.e8514_s4159_r15224
mc23_13p6TeV.513126.MGPy8EG_Zmumu_FxFx3jHT2bias_SW_10M40_BFilter.recon.AOD.e8514_s4162_r14622
mc23_13p6TeV.513126.MGPy8EG_Zmumu_FxFx3jHT2bias_SW_10M40_BFilter.recon.AOD.e8514_s4159_r15224
mc23_13p6TeV.513127.MGPy8EG_Zmumu_FxFx3jHT2bias_SW_10M40_CFilterBVeto.recon.AOD.e8514_s4162_r14622
mc23_13p6TeV.513127.MGPy8EG_Zmumu_FxFx3jHT2bias_SW_10M40_CFilterBVeto.recon.AOD.e8514_s4159_r15224
mc23_13p6TeV.513128.MGPy8EG_Zmumu_FxFx3jHT2bias_SW_10M40_CVetoBVeto.recon.AOD.e8514_s4162_r14622
mc23_13p6TeV.513128.MGPy8EG_Zmumu_FxFx3jHT2bias_SW_10M40_CVetoBVeto.recon.AOD.e8514_s4159_r15224
mc23_13p6TeV.513129.MGPy8EG_Ztautau_FxFx3jHT2bias_SW_10M40_BFilter.recon.AOD.e8514_s4162_r14622
mc23_13p6TeV.513129.MGPy8EG_Ztautau_FxFx3jHT2bias_SW_10M40_BFilter.recon.AOD.e8514_s4159_r15224
mc23_13p6TeV.513130.MGPy8EG_Ztautau_FxFx3jHT2bias_SW_10M40_CFiltBVeto.recon.AOD.e8514_s4162_r14622
mc23_13p6TeV.513130.MGPy8EG_Ztautau_FxFx3jHT2bias_SW_10M40_CFiltBVeto.recon.AOD.e8514_s4159_r15224
mc23_13p6TeV.513131.MGPy8EG_Ztautau_FxFx3jHT2bias_SW_10M40_CVetoBVeto.recon.AOD.e8514_s4162_r14622
mc23_13p6TeV.513131.MGPy8EG_Ztautau_FxFx3jHT2bias_SW_10M40_CVetoBVeto.recon.AOD.e8514_s4159_r15224
mc23_13p6TeV.513132.MGPy8EG_Wenu_FxFx3jHT2bias_SW_105M_BFilter.recon.AOD.e8514_s4162_r14622
mc23_13p6TeV.513132.MGPy8EG_Wenu_FxFx3jHT2bias_SW_105M_BFilter.recon.AOD.e8514_s4159_r15224
mc23_13p6TeV.513133.MGPy8EG_Wenu_FxFx3jHT2bias_SW_105M_CFilterBVeto.recon.AOD.e8514_s4162_r14622
mc23_13p6TeV.513133.MGPy8EG_Wenu_FxFx3jHT2bias_SW_105M_CFilterBVeto.recon.AOD.e8514_s4159_r15224
mc23_13p6TeV.513134.MGPy8EG_Wenu_FxFx3jHT2bias_SW_105M_CVetoBVeto.recon.AOD.e8514_s4162_r14622
mc23_13p6TeV.513134.MGPy8EG_Wenu_FxFx3jHT2bias_SW_105M_CVetoBVeto.recon.AOD.e8514_s4159_r15224
mc23_13p6TeV.513135.MGPy8EG_Wmunu_FxFx3jHT2bias_SW_105M_BFilter.recon.AOD.e8514_s4162_r14622
mc23_13p6TeV.513135.MGPy8EG_Wmunu_FxFx3jHT2bias_SW_105M_BFilter.recon.AOD.e8514_s4159_r15224
mc23_13p6TeV.513136.MGPy8EG_Wmunu_FxFx3jHT2bias_SW_105M_CFilterBVeto.recon.AOD.e8514_s4162_r14622
mc23_13p6TeV.513136.MGPy8EG_Wmunu_FxFx3jHT2bias_SW_105M_CFilterBVeto.recon.AOD.e8514_s4159_r15224
mc23_13p6TeV.513137.MGPy8EG_Wmunu_FxFx3jHT2bias_SW_105M_CVetoBVeto.recon.AOD.e8514_s4162_r14622
mc23_13p6TeV.513137.MGPy8EG_Wmunu_FxFx3jHT2bias_SW_105M_CVetoBVeto.recon.AOD.e8514_s4159_r15224
mc23_13p6TeV.601183.PhPy8EG_AZNLO_Wplusenu.recon.AOD.e8514_s4162_r14622
mc23_13p6TeV.601183.PhPy8EG_AZNLO_Wplusenu.recon.AOD.e8514_s4159_r15224
mc23_13p6TeV.601184.PhPy8EG_AZNLO_Wplusmunu.recon.AOD.e8514_s4162_r14622
mc23_13p6TeV.601184.PhPy8EG_AZNLO_Wplusmunu.recon.AOD.e8514_s4159_r15224
mc23_13p6TeV.601185.PhPy8EG_AZNLO_Wplustaunu.recon.AOD.e8514_s4162_r14622
mc23_13p6TeV.601185.PhPy8EG_AZNLO_Wplustaunu.recon.AOD.e8514_s4159_r15224
mc23_13p6TeV.601186.PhPy8EG_AZNLO_Wminusenu.recon.AOD.e8514_s4162_r14622
mc23_13p6TeV.601186.PhPy8EG_AZNLO_Wminusenu.recon.AOD.e8514_s4159_r15224
mc23_13p6TeV.601187.PhPy8EG_AZNLO_Wminusmunu.recon.AOD.e8514_s4162_r14622
mc23_13p6TeV.601187.PhPy8EG_AZNLO_Wminusmunu.recon.AOD.e8514_s4159_r15224
mc23_13p6TeV.601188.PhPy8EG_AZNLO_Wminustaunu.recon.AOD.e8514_s4162_r14622
mc23_13p6TeV.601188.PhPy8EG_AZNLO_Wminustaunu.recon.AOD.e8514_s4159_r15224
mc23_13p6TeV.601189.PhPy8EG_AZNLO_Zee.recon.AOD.e8514_s4162_r15540
mc23_13p6TeV.601189.PhPy8EG_AZNLO_Zee.recon.AOD.e8514_s4159_r15530
mc23_13p6TeV.601190.PhPy8EG_AZNLO_Zmumu.recon.AOD.e8514_s4162_r15540
mc23_13p6TeV.601190.PhPy8EG_AZNLO_Zmumu.recon.AOD.e8514_s4159_r15530
mc23_13p6TeV.601191.PhPy8EG_AZNLO_Ztautau.recon.AOD.e8514_s4162_r14622
mc23_13p6TeV.601191.PhPy8EG_AZNLO_Ztautau.recon.AOD.e8514_s4159_r15224
mc23_13p6TeV.601229.PhPy8EG_A14_ttbar_hdamp258p75_SingleLep.recon.AOD.e8514_s4162_r15540
mc23_13p6TeV.601229.PhPy8EG_A14_ttbar_hdamp258p75_SingleLep.recon.AOD.e8514_s4159_r15530
mc23_13p6TeV.601230.PhPy8EG_A14_ttbar_hdamp258p75_dil.recon.AOD.e8514_s4162_r15540
mc23_13p6TeV.601230.PhPy8EG_A14_ttbar_hdamp258p75_dil.recon.AOD.e8514_s4159_r15530
mc23_13p6TeV.601237.PhPy8EG_A14_ttbar_hdamp258p75_allhad.recon.AOD.e8514_s4162_r15540
mc23_13p6TeV.601237.PhPy8EG_A14_ttbar_hdamp258p75_allhad.recon.AOD.e8514_s4159_r15530
mc23_13p6TeV.601348.PhPy8EG_tb_lep_antitop.recon.AOD.e8514_s4162_r14622
mc23_13p6TeV.601348.PhPy8EG_tb_lep_antitop.recon.AOD.e8514_s4159_r15224
mc23_13p6TeV.601349.PhPy8EG_tb_lep_top.recon.AOD.e8514_s4162_r14622
mc23_13p6TeV.601349.PhPy8EG_tb_lep_top.recon.AOD.e8514_s4159_r15224
mc23_13p6TeV.601350.PhPy8EG_tqb_lep_antitop.recon.AOD.e8514_s4162_r14622
mc23_13p6TeV.601350.PhPy8EG_tqb_lep_antitop.recon.AOD.e8514_s4159_r15224
mc23_13p6TeV.601351.PhPy8EG_tqb_lep_top.recon.AOD.e8514_s4162_r14622
mc23_13p6TeV.601351.PhPy8EG_tqb_lep_top.recon.AOD.e8514_s4159_r15224
mc23_13p6TeV.601352.PhPy8EG_tW_dyn_DR_incl_antitop.recon.AOD.e8551_s4162_r14622
mc23_13p6TeV.601352.PhPy8EG_tW_dyn_DR_incl_antitop.recon.AOD.e8551_s4159_r15224
mc23_13p6TeV.601353.PhPy8EG_tW_dyn_DR_dil_antitop.recon.AOD.e8551_s4162_r14622
mc23_13p6TeV.601353.PhPy8EG_tW_dyn_DR_dil_antitop.recon.AOD.e8551_s4159_r15224
mc23_13p6TeV.601354.PhPy8EG_tW_dyn_DR_dil_top.recon.AOD.e8551_s4162_r14622
mc23_13p6TeV.601354.PhPy8EG_tW_dyn_DR_dil_top.recon.AOD.e8551_s4159_r15224
mc23_13p6TeV.601355.PhPy8EG_tW_dyn_DR_incl_top.recon.AOD.e8551_s4162_r14622
mc23_13p6TeV.601355.PhPy8EG_tW_dyn_DR_incl_top.recon.AOD.e8551_s4159_r15224
mc23_13p6TeV.601700.PhPy8EG_dijet_JZ1.recon.AOD.e8514_s4162_r14622
mc23_13p6TeV.601700.PhPy8EG_dijet_JZ1.recon.AOD.e8551_s4159_r15224
mc23_13p6TeV.601701.PhPy8EG_dijet_JZ2.recon.AOD.e8514_s4162_r14622
mc23_13p6TeV.601701.PhPy8EG_dijet_JZ2.recon.AOD.e8551_s4159_r15224
mc23_13p6TeV.601702.PhPy8EG_dijet_JZ3.recon.AOD.e8514_s4162_r14622
mc23_13p6TeV.601702.PhPy8EG_dijet_JZ3.recon.AOD.e8551_s4159_r15224
mc23_13p6TeV.601703.PhPy8EG_dijet_JZ4.recon.AOD.e8514_s4162_r15540
mc23_13p6TeV.601704.PhPy8EG_dijet_JZ5.recon.AOD.e8514_s4162_r14622
mc23_13p6TeV.601704.PhPy8EG_dijet_JZ5.recon.AOD.e8551_s4159_r15224
mc23_13p6TeV.601705.PhPy8EG_dijet_JZ6.recon.AOD.e8514_s4162_r14622
mc23_13p6TeV.601705.PhPy8EG_dijet_JZ6.recon.AOD.e8551_s4159_r15224
mc23_13p6TeV.601706.PhPy8EG_dijet_JZ7.recon.AOD.e8514_s4162_r14622
mc23_13p6TeV.601706.PhPy8EG_dijet_JZ7.recon.AOD.e8551_s4159_r15224
mc23_13p6TeV.601707.PhPy8EG_dijet_JZ8incl.recon.AOD.e8514_s4162_r14622
mc23_13p6TeV.601707.PhPy8EG_dijet_JZ8incl.recon.AOD.e8551_s4159_r15224
mc23_13p6TeV.700584.Sh_2214_WWZ_2l4v_EW6.recon.AOD.e8532_s4162_r14622
mc23_13p6TeV.700584.Sh_2214_WWZ_2l4v_EW6.recon.AOD.e8532_s4159_r15224
mc23_13p6TeV.700770.Sh_2214_eegamma.recon.AOD.e8514_s4162_r14622
mc23_13p6TeV.700770.Sh_2214_eegamma.recon.AOD.e8514_s4159_r15224
mc23_13p6TeV.700771.Sh_2214_mumugamma.recon.AOD.e8514_s4162_r14622
mc23_13p6TeV.700771.Sh_2214_mumugamma.recon.AOD.e8514_s4159_r15224
mc23_13p6TeV.700772.Sh_2214_tautaugamma.recon.AOD.e8514_s4162_r14622
mc23_13p6TeV.700772.Sh_2214_tautaugamma.recon.AOD.e8514_s4159_r15224
mc23_13p6TeV.700773.Sh_2214_enugamma.recon.AOD.e8514_s4162_r14622
mc23_13p6TeV.700773.Sh_2214_enugamma.recon.AOD.e8514_s4159_r15224
mc23_13p6TeV.700774.Sh_2214_munugamma.recon.AOD.e8514_s4162_r14622
mc23_13p6TeV.700774.Sh_2214_munugamma.recon.AOD.e8514_s4159_r15224
mc23_13p6TeV.700775.Sh_2214_taunugamma.recon.AOD.e8514_s4162_r14622
mc23_13p6TeV.700775.Sh_2214_taunugamma.recon.AOD.e8514_s4159_r15224
mc23_13p6TeV.700776.Sh_2214_nunugamma.recon.AOD.e8514_s4162_r14622
mc23_13p6TeV.700776.Sh_2214_nunugamma.recon.AOD.e8514_s4159_r15224
mc23_13p6TeV.700777.Sh_2214_Wenu_maxHTpTV2_BFilter.recon.AOD.e8514_s4162_r14622
mc23_13p6TeV.700777.Sh_2214_Wenu_maxHTpTV2_BFilter.recon.AOD.e8514_s4159_r15224
mc23_13p6TeV.700778.Sh_2214_Wenu_maxHTpTV2_CFilterBVeto.recon.AOD.e8514_s4162_r14622
mc23_13p6TeV.700778.Sh_2214_Wenu_maxHTpTV2_CFilterBVeto.recon.AOD.e8514_s4159_r15224
mc23_13p6TeV.700779.Sh_2214_Wenu_maxHTpTV2_CVetoBVeto.recon.AOD.e8514_s4162_r15540
mc23_13p6TeV.700779.Sh_2214_Wenu_maxHTpTV2_CVetoBVeto.recon.AOD.e8514_s4159_r15530
mc23_13p6TeV.700780.Sh_2214_Wmunu_maxHTpTV2_BFilter.recon.AOD.e8514_s4162_r14622
mc23_13p6TeV.700780.Sh_2214_Wmunu_maxHTpTV2_BFilter.recon.AOD.e8514_s4159_r15224
mc23_13p6TeV.700781.Sh_2214_Wmunu_maxHTpTV2_CFilterBVeto.recon.AOD.e8514_s4162_r14622
mc23_13p6TeV.700781.Sh_2214_Wmunu_maxHTpTV2_CFilterBVeto.recon.AOD.e8514_s4159_r15224
mc23_13p6TeV.700782.Sh_2214_Wmunu_maxHTpTV2_CVetoBVeto.recon.AOD.e8514_s4162_r15540
mc23_13p6TeV.700782.Sh_2214_Wmunu_maxHTpTV2_CVetoBVeto.recon.AOD.e8514_s4159_r15530
mc23_13p6TeV.700783.Sh_2214_Wtaunu_maxHTpTV2_BFilter.recon.AOD.e8514_s4162_r14622
mc23_13p6TeV.700783.Sh_2214_Wtaunu_maxHTpTV2_BFilter.recon.AOD.e8514_s4159_r15224
mc23_13p6TeV.700784.Sh_2214_Wtaunu_maxHTpTV2_CFilterBVeto.recon.AOD.e8514_s4162_r14622
mc23_13p6TeV.700784.Sh_2214_Wtaunu_maxHTpTV2_CFilterBVeto.recon.AOD.e8514_s4159_r15224
mc23_13p6TeV.700785.Sh_2214_Wtaunu_maxHTpTV2_CVetoBVeto.recon.AOD.e8514_s4162_r15540
mc23_13p6TeV.700785.Sh_2214_Wtaunu_maxHTpTV2_CVetoBVeto.recon.AOD.e8514_s4159_r15530
mc23_13p6TeV.700786.Sh_2214_Zee_maxHTpTV2_BFilter.recon.AOD.e8514_s4162_r14622
mc23_13p6TeV.700786.Sh_2214_Zee_maxHTpTV2_BFilter.recon.AOD.e8514_s4159_r15224
mc23_13p6TeV.700787.Sh_2214_Zee_maxHTpTV2_CFilterBVeto.recon.AOD.e8514_s4162_r14622
mc23_13p6TeV.700787.Sh_2214_Zee_maxHTpTV2_CFilterBVeto.recon.AOD.e8514_s4159_r15224
mc23_13p6TeV.700788.Sh_2214_Zee_maxHTpTV2_CVetoBVeto.recon.AOD.e8514_s4162_r15540
mc23_13p6TeV.700788.Sh_2214_Zee_maxHTpTV2_CVetoBVeto.recon.AOD.e8514_s4159_r15530
mc23_13p6TeV.700789.Sh_2214_Zmumu_maxHTpTV2_BFilter.recon.AOD.e8514_s4162_r14622
mc23_13p6TeV.700789.Sh_2214_Zmumu_maxHTpTV2_BFilter.recon.AOD.e8514_s4159_r15224
mc23_13p6TeV.700790.Sh_2214_Zmumu_maxHTpTV2_CFilterBVeto.recon.AOD.e8514_s4162_r14622
mc23_13p6TeV.700790.Sh_2214_Zmumu_maxHTpTV2_CFilterBVeto.recon.AOD.e8514_s4159_r15224
mc23_13p6TeV.700791.Sh_2214_Zmumu_maxHTpTV2_CVetoBVeto.recon.AOD.e8514_s4162_r15540
mc23_13p6TeV.700791.Sh_2214_Zmumu_maxHTpTV2_CVetoBVeto.recon.AOD.e8514_s4159_r15530
mc23_13p6TeV.700792.Sh_2214_Ztautau_maxHTpTV2_BFilter.recon.AOD.e8514_s4162_r14622
mc23_13p6TeV.700792.Sh_2214_Ztautau_maxHTpTV2_BFilter.recon.AOD.e8514_s4159_r15224
mc23_13p6TeV.700793.Sh_2214_Ztautau_maxHTpTV2_CFilterBVeto.recon.AOD.e8514_s4162_r14622
mc23_13p6TeV.700793.Sh_2214_Ztautau_maxHTpTV2_CFilterBVeto.recon.AOD.e8514_s4159_r15224
mc23_13p6TeV.700794.Sh_2214_Ztautau_maxHTpTV2_CVetoBVeto.recon.AOD.e8514_s4162_r15540
mc23_13p6TeV.700794.Sh_2214_Ztautau_maxHTpTV2_CVetoBVeto.recon.AOD.e8514_s4159_r15530
mc23_13p6TeV.700795.Sh_2214_Znunu_pTV2_BFilter.recon.AOD.e8514_s4162_r14622
mc23_13p6TeV.700795.Sh_2214_Znunu_pTV2_BFilter.recon.AOD.e8514_s4159_r15224
mc23_13p6TeV.700796.Sh_2214_Znunu_pTV2_CFilterBVeto.recon.AOD.e8514_s4162_r14622
mc23_13p6TeV.700796.Sh_2214_Znunu_pTV2_CFilterBVeto.recon.AOD.e8514_s4159_r15224
mc23_13p6TeV.700797.Sh_2214_Znunu_pTV2_CVetoBVeto.recon.AOD.e8514_s4162_r15540
mc23_13p6TeV.700797.Sh_2214_Znunu_pTV2_CVetoBVeto.recon.AOD.e8514_s4159_r15530
mc23_13p6TeV.700843.Sh_2214_Wqq_ptW_200_ECMS.recon.AOD.e8514_s4162_r14622
mc23_13p6TeV.700843.Sh_2214_Wqq_ptW_200_ECMS.recon.AOD.e8514_s4159_r15224
mc23_13p6TeV.700849.Sh_2214_Zqq_ptZ_200_ECMS.recon.AOD.e8514_s4162_r14622
mc23_13p6TeV.700849.Sh_2214_Zqq_ptZ_200_ECMS.recon.AOD.e8514_s4159_r15224
mc23_13p6TeV.700855.Sh_2214_Zbb_ptZ_200_ECMS.recon.AOD.e8514_s4162_r14622
mc23_13p6TeV.700855.Sh_2214_Zbb_ptZ_200_ECMS.recon.AOD.e8514_s4159_r15224
mc23_13p6TeV.700864.Sh_2214_WpWmWm_lvlvjj_EW6.recon.AOD.e8532_s4162_r14622
mc23_13p6TeV.700864.Sh_2214_WpWmWm_lvlvjj_EW6.recon.AOD.e8532_s4159_r15224
mc23_13p6TeV.700865.Sh_2214_WpWpWm_lvlvjj_EW6.recon.AOD.e8532_s4162_r14622
mc23_13p6TeV.700865.Sh_2214_WpWpWm_lvlvjj_EW6.recon.AOD.e8532_s4159_r15224
mc23_13p6TeV.700866.Sh_2214_WWW_3l3v_EW6.recon.AOD.e8532_s4162_r14622
mc23_13p6TeV.700866.Sh_2214_WWW_3l3v_EW6.recon.AOD.e8532_s4159_r15224
mc23_13p6TeV.700867.Sh_2214_WZZ_3l3v_EW6.recon.AOD.e8532_s4162_r14622
mc23_13p6TeV.700867.Sh_2214_WZZ_3l3v_EW6.recon.AOD.e8532_s4159_r15224
mc23_13p6TeV.700868.Sh_2214_ZZZ_2l4v_EW6.recon.AOD.e8532_s4162_r14622
mc23_13p6TeV.700868.Sh_2214_ZZZ_2l4v_EW6.recon.AOD.e8532_s4159_r15224
mc23_13p6TeV.700870.Sh_2214_enugammagamma.recon.AOD.e8514_s4162_r14622
mc23_13p6TeV.700870.Sh_2214_enugammagamma.recon.AOD.e8514_s4159_r15224
mc23_13p6TeV.700871.Sh_2214_munugammagamma.recon.AOD.e8514_s4162_r14622
mc23_13p6TeV.700871.Sh_2214_munugammagamma.recon.AOD.e8514_s4159_r15224
mc23_13p6TeV.700872.Sh_2214_taunugammagamma.recon.AOD.e8514_s4162_r14622
mc23_13p6TeV.700872.Sh_2214_taunugammagamma.recon.AOD.e8514_s4159_r15224
mc23_13p6TeV.700873.Sh_2214_eegammagamma.recon.AOD.e8514_s4162_r14622
mc23_13p6TeV.700873.Sh_2214_eegammagamma.recon.AOD.e8514_s4159_r15224
mc23_13p6TeV.700874.Sh_2214_mumugammagamma.recon.AOD.e8514_s4162_r14622
mc23_13p6TeV.700874.Sh_2214_mumugammagamma.recon.AOD.e8514_s4159_r15224
mc23_13p6TeV.700875.Sh_2214_tautaugammagamma.recon.AOD.e8514_s4162_r14622
mc23_13p6TeV.700875.Sh_2214_tautaugammagamma.recon.AOD.e8514_s4159_r15224
mc23_13p6TeV.700876.Sh_2214_nunugammagamma.recon.AOD.e8514_s4162_r14622
mc23_13p6TeV.700876.Sh_2214_nunugammagamma.recon.AOD.e8514_s4159_r15224
mc23_13p6TeV.700877.Sh_2214_Wenu_mW_105_ECMS_BFilter.recon.AOD.e8514_s4162_r14622
mc23_13p6TeV.700877.Sh_2214_Wenu_mW_105_ECMS_BFilter.recon.AOD.e8514_s4159_r15224
mc23_13p6TeV.700878.Sh_2214_Wenu_mW_105_ECMS_CFilterBVeto.recon.AOD.e8514_s4162_r14622
mc23_13p6TeV.700878.Sh_2214_Wenu_mW_105_ECMS_CFilterBVeto.recon.AOD.e8514_s4159_r15224
mc23_13p6TeV.700880.Sh_2214_Wmunu_mW_105_ECMS_BFilter.recon.AOD.e8514_s4162_r14622
mc23_13p6TeV.700880.Sh_2214_Wmunu_mW_105_ECMS_BFilter.recon.AOD.e8514_s4159_r15224
mc23_13p6TeV.700881.Sh_2214_Wmunu_mW_105_ECMS_CFilterBVeto.recon.AOD.e8514_s4162_r14622
mc23_13p6TeV.700881.Sh_2214_Wmunu_mW_105_ECMS_CFilterBVeto.recon.AOD.e8514_s4159_r15224
mc23_13p6TeV.700882.Sh_2214_Wmunu_mW_105_ECMS_CVetoBVeto.recon.AOD.e8514_s4162_r14622
mc23_13p6TeV.700882.Sh_2214_Wmunu_mW_105_ECMS_CVetoBVeto.recon.AOD.e8514_s4159_r15224
mc23_13p6TeV.700883.Sh_2214_Wtaunu_mW_105_ECMS_BFilter.recon.AOD.e8514_s4162_r14622
mc23_13p6TeV.700883.Sh_2214_Wtaunu_mW_105_ECMS_BFilter.recon.AOD.e8514_s4159_r15224
mc23_13p6TeV.700884.Sh_2214_Wtaunu_mW_105_ECMS_CFilterBVeto.recon.AOD.e8514_s4162_r14622
mc23_13p6TeV.700884.Sh_2214_Wtaunu_mW_105_ECMS_CFilterBVeto.recon.AOD.e8514_s4159_r15224
mc23_13p6TeV.700885.Sh_2214_Wtaunu_mW_105_ECMS_CVetoBVeto.recon.AOD.e8514_s4162_r14622
mc23_13p6TeV.700885.Sh_2214_Wtaunu_mW_105_ECMS_CVetoBVeto.recon.AOD.e8514_s4159_r15224
mc23_13p6TeV.700886.Sh_2214_Zee_mZ_105_ECMS_BFilter.recon.AOD.e8514_s4162_r14622
mc23_13p6TeV.700886.Sh_2214_Zee_mZ_105_ECMS_BFilter.recon.AOD.e8514_s4159_r15224
mc23_13p6TeV.700887.Sh_2214_Zee_mZ_105_ECMS_CFilterBVeto.recon.AOD.e8514_s4162_r14622
mc23_13p6TeV.700887.Sh_2214_Zee_mZ_105_ECMS_CFilterBVeto.recon.AOD.e8514_s4159_r15224
mc23_13p6TeV.700888.Sh_2214_Zee_mZ_105_ECMS_CVetoBVeto.recon.AOD.e8514_s4162_r14622
mc23_13p6TeV.700888.Sh_2214_Zee_mZ_105_ECMS_CVetoBVeto.recon.AOD.e8514_s4159_r15224
mc23_13p6TeV.700889.Sh_2214_Zmumu_mZ_105_ECMS_BFilter.recon.AOD.e8514_s4162_r15540
mc23_13p6TeV.700890.Sh_2214_Zmumu_mZ_105_ECMS_CFilterBVeto.recon.AOD.e8514_s4162_r14622
mc23_13p6TeV.700890.Sh_2214_Zmumu_mZ_105_ECMS_CFilterBVeto.recon.AOD.e8514_s4159_r15224
mc23_13p6TeV.700891.Sh_2214_Zmumu_mZ_105_ECMS_CVetoBVeto.recon.AOD.e8514_s4162_r15540
mc23_13p6TeV.700892.Sh_2214_Ztautau_mZ_105_ECMS_BFilter.recon.AOD.e8514_s4162_r14622
mc23_13p6TeV.700892.Sh_2214_Ztautau_mZ_105_ECMS_BFilter.recon.AOD.e8514_s4159_r15224
mc23_13p6TeV.700893.Sh_2214_Ztautau_mZ_105_ECMS_CFilterBVeto.recon.AOD.e8514_s4162_r14622
mc23_13p6TeV.700893.Sh_2214_Ztautau_mZ_105_ECMS_CFilterBVeto.recon.AOD.e8514_s4159_r15224
mc23_13p6TeV.700894.Sh_2214_Ztautau_mZ_105_ECMS_CVetoBVeto.recon.AOD.e8514_s4162_r14622
mc23_13p6TeV.700894.Sh_2214_Ztautau_mZ_105_ECMS_CVetoBVeto.recon.AOD.e8514_s4159_r15224
mc23_13p6TeV.700895.Sh_2214_Zee_maxHTpTV2_Mll10_40_BFilter.recon.AOD.e8514_s4162_r14622
mc23_13p6TeV.700895.Sh_2214_Zee_maxHTpTV2_Mll10_40_BFilter.recon.AOD.e8514_s4159_r15224
mc23_13p6TeV.700896.Sh_2214_Zee_maxHTpTV2_Mll10_40_CFilterBVeto.recon.AOD.e8514_s4162_r14622
mc23_13p6TeV.700896.Sh_2214_Zee_maxHTpTV2_Mll10_40_CFilterBVeto.recon.AOD.e8514_s4159_r15224
mc23_13p6TeV.700897.Sh_2214_Zee_maxHTpTV2_Mll10_40_CVetoBVeto.recon.AOD.e8514_s4159_r15224
mc23_13p6TeV.700898.Sh_2214_Zmumu_maxHTpTV2_Mll10_40_BFilter.recon.AOD.e8514_s4162_r14622
mc23_13p6TeV.700898.Sh_2214_Zmumu_maxHTpTV2_Mll10_40_BFilter.recon.AOD.e8514_s4159_r15224
mc23_13p6TeV.700899.Sh_2214_Zmumu_maxHTpTV2_Mll10_40_CFilterBVeto.recon.AOD.e8514_s4159_r15224
mc23_13p6TeV.700900.Sh_2214_Zmumu_maxHTpTV2_Mll10_40_CVetoBVeto.recon.AOD.e8514_s4159_r15224
mc23_13p6TeV.700901.Sh_2214_Ztt_maxHTpTV2_Mll10_40_BFilter.recon.AOD.e8514_s4162_r14622
mc23_13p6TeV.700901.Sh_2214_Ztt_maxHTpTV2_Mll10_40_BFilter.recon.AOD.e8514_s4159_r15224
mc23_13p6TeV.700902.Sh_2214_Ztt_maxHTpTV2_Mll10_40_CFilterBVeto.recon.AOD.e8514_s4162_r14622
mc23_13p6TeV.700902.Sh_2214_Ztt_maxHTpTV2_Mll10_40_CFilterBVeto.recon.AOD.e8514_s4159_r15224
mc23_13p6TeV.700903.Sh_2214_Ztt_maxHTpTV2_Mll10_40_CVetoBVeto.recon.AOD.e8514_s4162_r14622
mc23_13p6TeV.700903.Sh_2214_Ztt_maxHTpTV2_Mll10_40_CVetoBVeto.recon.AOD.e8514_s4159_r15224
mc23_13p6TeV.701000.Sh_2214_lllljj.recon.AOD.e8543_s4162_r14622
mc23_13p6TeV.701000.Sh_2214_lllljj.recon.AOD.e8543_s4159_r15224
mc23_13p6TeV.701005.Sh_2214_lllvjj.recon.AOD.e8543_s4162_r14622
mc23_13p6TeV.701005.Sh_2214_lllvjj.recon.AOD.e8543_s4159_r15224
mc23_13p6TeV.701010.Sh_2214_llvvjj_os.recon.AOD.e8543_s4162_r14622
mc23_13p6TeV.701010.Sh_2214_llvvjj_os.recon.AOD.e8543_s4159_r15224 
mc23_13p6TeV.701015.Sh_2214_llvvjj_ss.recon.AOD.e8543_s4162_r14622
mc23_13p6TeV.701015.Sh_2214_llvvjj_ss.recon.AOD.e8543_s4159_r15224 
mc23_13p6TeV.701020.Sh_2214_lllljj_Int.recon.AOD.e8543_s4162_r14622
mc23_13p6TeV.701020.Sh_2214_lllljj_Int.recon.AOD.e8543_s4159_r15224
mc23_13p6TeV.701025.Sh_2214_lllvjj_Int.recon.AOD.e8543_s4162_r14622
mc23_13p6TeV.701025.Sh_2214_lllvjj_Int.recon.AOD.e8543_s4159_r15224
mc23_13p6TeV.701030.Sh_2214_llvvjj_os_Int.recon.AOD.e8543_s4162_r14622
mc23_13p6TeV.701030.Sh_2214_llvvjj_os_Int.recon.AOD.e8543_s4159_r15224
mc23_13p6TeV.701035.Sh_2214_llvvjj_ss_Int.recon.AOD.e8543_s4162_r14622
mc23_13p6TeV.701035.Sh_2214_llvvjj_ss_Int.recon.AOD.e8543_s4159_r15224
mc23_13p6TeV.701040.Sh_2214_llll.recon.AOD.e8543_s4162_r14622
mc23_13p6TeV.701040.Sh_2214_llll.recon.AOD.e8543_s4159_r15224
mc23_13p6TeV.701045.Sh_2214_lllv.recon.AOD.e8543_s4162_r14622
mc23_13p6TeV.701045.Sh_2214_lllv.recon.AOD.e8543_s4159_r15224
mc23_13p6TeV.701050.Sh_2214_llvv_os.recon.AOD.e8543_s4162_r14622
mc23_13p6TeV.701050.Sh_2214_llvv_os.recon.AOD.e8543_s4159_r15224
mc23_13p6TeV.701055.Sh_2214_llvv_ss.recon.AOD.e8543_s4162_r14622
mc23_13p6TeV.701055.Sh_2214_llvv_ss.recon.AOD.e8543_s4159_r15224
mc23_13p6TeV.701060.Sh_2214_lvvv.recon.AOD.e8543_s4162_r14622
mc23_13p6TeV.701060.Sh_2214_lvvv.recon.AOD.e8543_s4159_r15224
mc23_13p6TeV.701065.Sh_2214_vvvv.recon.AOD.e8543_s4162_r14622
mc23_13p6TeV.701065.Sh_2214_vvvv.recon.AOD.e8543_s4159_r15224
mc23_13p6TeV.701085.Sh_2214_ZqqZll.recon.AOD.e8543_s4162_r14622
mc23_13p6TeV.701085.Sh_2214_ZqqZll.recon.AOD.e8543_s4159_r15224
mc23_13p6TeV.701090.Sh_2214_ZbbZll.recon.AOD.e8543_s4162_r14622
mc23_13p6TeV.701090.Sh_2214_ZbbZll.recon.AOD.e8543_s4159_r15224
mc23_13p6TeV.701095.Sh_2214_ZqqZvv.recon.AOD.e8543_s4162_r14622
mc23_13p6TeV.701095.Sh_2214_ZqqZvv.recon.AOD.e8543_s4159_r15224
mc23_13p6TeV.701100.Sh_2214_ZbbZvv.recon.AOD.e8543_s4162_r14622
mc23_13p6TeV.701100.Sh_2214_ZbbZvv.recon.AOD.e8543_s4159_r15224
mc23_13p6TeV.701105.Sh_2214_WqqZll.recon.AOD.e8543_s4162_r14622
mc23_13p6TeV.701105.Sh_2214_WqqZll.recon.AOD.e8543_s4159_r15224
mc23_13p6TeV.701110.Sh_2214_WqqZvv.recon.AOD.e8543_s4162_r14622
mc23_13p6TeV.701110.Sh_2214_WqqZvv.recon.AOD.e8543_s4159_r15224
mc23_13p6TeV.701115.Sh_2214_WlvZqq.recon.AOD.e8543_s4162_r14622
mc23_13p6TeV.701115.Sh_2214_WlvZqq.recon.AOD.e8543_s4159_r15224
mc23_13p6TeV.701120.Sh_2214_WlvZbb.recon.AOD.e8543_s4162_r14622
mc23_13p6TeV.701120.Sh_2214_WlvZbb.recon.AOD.e8543_s4159_r15224
mc23_13p6TeV.701125.Sh_2214_WlvWqq.recon.AOD.e8543_s4162_r14622
mc23_13p6TeV.701125.Sh_2214_WlvWqq.recon.AOD.e8543_s4159_r15224
mc23_13p6TeV.801165.Py8EG_A14NNPDF23LO_jj_JZ0.recon.AOD.e8514_s4162_r14622
mc23_13p6TeV.801165.Py8EG_A14NNPDF23LO_jj_JZ0.recon.AOD.e8514_s4159_r15224
mc23_13p6TeV.801166.Py8EG_A14NNPDF23LO_jj_JZ1.recon.AOD.e8514_s4162_r14622
mc23_13p6TeV.801166.Py8EG_A14NNPDF23LO_jj_JZ1.recon.AOD.e8514_s4159_r15224
mc23_13p6TeV.801167.Py8EG_A14NNPDF23LO_jj_JZ2.recon.AOD.e8514_s4162_r14622
mc23_13p6TeV.801167.Py8EG_A14NNPDF23LO_jj_JZ2.recon.AOD.e8514_s4159_r15224
mc23_13p6TeV.801168.Py8EG_A14NNPDF23LO_jj_JZ3.recon.AOD.e8514_s4162_r14622
mc23_13p6TeV.801168.Py8EG_A14NNPDF23LO_jj_JZ3.recon.AOD.e8514_s4159_r15224
mc23_13p6TeV.801169.Py8EG_A14NNPDF23LO_jj_JZ4.recon.AOD.e8514_s4162_r14622
mc23_13p6TeV.801169.Py8EG_A14NNPDF23LO_jj_JZ4.recon.AOD.e8514_s4159_r15224
mc23_13p6TeV.801170.Py8EG_A14NNPDF23LO_jj_JZ5.recon.AOD.e8514_s4162_r14622
mc23_13p6TeV.801170.Py8EG_A14NNPDF23LO_jj_JZ5.recon.AOD.e8514_s4159_r15224
mc23_13p6TeV.801171.Py8EG_A14NNPDF23LO_jj_JZ6.recon.AOD.e8514_s4162_r14622
mc23_13p6TeV.801171.Py8EG_A14NNPDF23LO_jj_JZ6.recon.AOD.e8514_s4159_r15224
mc23_13p6TeV.801172.Py8EG_A14NNPDF23LO_jj_JZ7.recon.AOD.e8514_s4162_r14622
mc23_13p6TeV.801172.Py8EG_A14NNPDF23LO_jj_JZ7.recon.AOD.e8514_s4159_r15224
mc23_13p6TeV.801173.Py8EG_A14NNPDF23LO_jj_JZ8.recon.AOD.e8514_s4162_r14622
mc23_13p6TeV.801173.Py8EG_A14NNPDF23LO_jj_JZ8.recon.AOD.e8514_s4159_r15224
mc23_13p6TeV.801174.Py8EG_A14NNPDF23LO_jj_JZ9incl.recon.AOD.e8514_s4162_r14622
mc23_13p6TeV.801174.Py8EG_A14NNPDF23LO_jj_JZ9incl.recon.AOD.e8514_s4159_r15224
mc23_13p6TeV.801649.Py8_gammajet_frag_DP8_17_FullSW.recon.AOD.e8514_s4162_r14622
mc23_13p6TeV.801649.Py8_gammajet_frag_DP8_17_FullSW.recon.AOD.e8514_s4159_r15224
mc23_13p6TeV.801650.Py8_gammajet_frag_DP17_35_FullSW.recon.AOD.e8514_s4162_r14622
mc23_13p6TeV.801650.Py8_gammajet_frag_DP17_35_FullSW.recon.AOD.e8514_s4159_r15224
mc23_13p6TeV.801651.Py8_gammajet_frag_DP35_50_FullSW.recon.AOD.e8514_s4162_r14622
mc23_13p6TeV.801651.Py8_gammajet_frag_DP35_50_FullSW.recon.AOD.e8514_s4159_r15224
mc23_13p6TeV.801652.Py8_gammajet_frag_DP50_70_FullSW.recon.AOD.e8514_s4162_r14622
mc23_13p6TeV.801652.Py8_gammajet_frag_DP50_70_FullSW.recon.AOD.e8514_s4159_r15224
mc23_13p6TeV.801653.Py8_gammajet_frag_DP70_140_FullSW.recon.AOD.e8514_s4162_r14622
mc23_13p6TeV.801653.Py8_gammajet_frag_DP70_140_FullSW.recon.AOD.e8514_s4159_r15224
mc23_13p6TeV.801654.Py8_gammajet_frag_DP140_280_FullSW.recon.AOD.e8514_s4162_r14622
mc23_13p6TeV.801654.Py8_gammajet_frag_DP140_280_FullSW.recon.AOD.e8514_s4159_r15224
mc23_13p6TeV.801655.Py8_gammajet_frag_DP280_500_FullSW.recon.AOD.e8514_s4162_r14622
mc23_13p6TeV.801655.Py8_gammajet_frag_DP280_500_FullSW.recon.AOD.e8514_s4159_r15224
mc23_13p6TeV.801656.Py8_gammajet_frag_DP500_800_FullSW.recon.AOD.e8514_s4162_r14622
mc23_13p6TeV.801656.Py8_gammajet_frag_DP500_800_FullSW.recon.AOD.e8514_s4159_r15224
mc23_13p6TeV.801657.Py8_gammajet_frag_DP800_1000_FullSW.recon.AOD.e8514_s4162_r14622
mc23_13p6TeV.801657.Py8_gammajet_frag_DP800_1000_FullSW.recon.AOD.e8514_s4159_r15224
mc23_13p6TeV.801658.Py8_gammajet_frag_DP1000_1500_FullSW.recon.AOD.e8514_s4162_r14622
mc23_13p6TeV.801658.Py8_gammajet_frag_DP1000_1500_FullSW.recon.AOD.e8514_s4159_r15224
mc23_13p6TeV.801659.Py8_gammajet_frag_DP1500_2000_FullSW.recon.AOD.e8514_s4162_r14622
mc23_13p6TeV.801659.Py8_gammajet_frag_DP1500_2000_FullSW.recon.AOD.e8514_s4159_r15224
mc23_13p6TeV.801660.Py8_gammajet_frag_DP2000_inf_FullSW.recon.AOD.e8514_s4162_r14622
mc23_13p6TeV.801660.Py8_gammajet_frag_DP2000_inf_FullSW.recon.AOD.e8514_s4159_r15224
mc23_13p6TeV.801663.Py8_gammajet_direct_DP8_17_FullSW.recon.AOD.e8514_s4162_r14622
mc23_13p6TeV.801663.Py8_gammajet_direct_DP8_17_FullSW.recon.AOD.e8514_s4159_r15224
mc23_13p6TeV.801664.Py8_gammajet_direct_DP17_35_FullSW.recon.AOD.e8514_s4162_r14622
mc23_13p6TeV.801664.Py8_gammajet_direct_DP17_35_FullSW.recon.AOD.e8514_s4159_r15224
mc23_13p6TeV.801665.Py8_gammajet_direct_DP35_50_FullSW.recon.AOD.e8514_s4162_r14622
mc23_13p6TeV.801665.Py8_gammajet_direct_DP35_50_FullSW.recon.AOD.e8514_s4159_r15224
mc23_13p6TeV.801666.Py8_gammajet_direct_DP50_70_FullSW.recon.AOD.e8514_s4162_r14622
mc23_13p6TeV.801666.Py8_gammajet_direct_DP50_70_FullSW.recon.AOD.e8514_s4159_r15224
mc23_13p6TeV.801667.Py8_gammajet_direct_DP70_140_FullSW.recon.AOD.e8514_s4162_r14622
mc23_13p6TeV.801667.Py8_gammajet_direct_DP70_140_FullSW.recon.AOD.e8514_s4159_r15224
mc23_13p6TeV.801668.Py8_gammajet_direct_DP140_280_FullSW.recon.AOD.e8514_s4162_r14622
mc23_13p6TeV.801668.Py8_gammajet_direct_DP140_280_FullSW.recon.AOD.e8514_s4159_r15224
mc23_13p6TeV.801669.Py8_gammajet_direct_DP280_500_FullSW.recon.AOD.e8514_s4162_r14622
mc23_13p6TeV.801669.Py8_gammajet_direct_DP280_500_FullSW.recon.AOD.e8514_s4159_r15224
mc23_13p6TeV.801670.Py8_gammajet_direct_DP500_800_FullSW.recon.AOD.e8514_s4162_r14622
mc23_13p6TeV.801670.Py8_gammajet_direct_DP500_800_FullSW.recon.AOD.e8514_s4159_r15224
mc23_13p6TeV.801671.Py8_gammajet_direct_DP800_1000_FullSW.recon.AOD.e8514_s4162_r14622
mc23_13p6TeV.801671.Py8_gammajet_direct_DP800_1000_FullSW.recon.AOD.e8514_s4159_r15224
mc23_13p6TeV.801672.Py8_gammajet_direct_DP1000_1500_FullSW.recon.AOD.e8514_s4162_r14622
mc23_13p6TeV.801672.Py8_gammajet_direct_DP1000_1500_FullSW.recon.AOD.e8514_s4159_r15224
mc23_13p6TeV.801673.Py8_gammajet_direct_DP1500_2000_FullSW.recon.AOD.e8514_s4162_r14622
mc23_13p6TeV.801673.Py8_gammajet_direct_DP1500_2000_FullSW.recon.AOD.e8514_s4159_r15224
mc23_13p6TeV.801674.Py8_gammajet_direct_DP2000_2500_FullSW.recon.AOD.e8514_s4162_r14622
mc23_13p6TeV.801674.Py8_gammajet_direct_DP2000_2500_FullSW.recon.AOD.e8514_s4159_r15224
mc23_13p6TeV.801675.Py8_gammajet_direct_DP2500_3000_FullSW.recon.AOD.e8514_s4162_r14622
mc23_13p6TeV.801675.Py8_gammajet_direct_DP2500_3000_FullSW.recon.AOD.e8514_s4159_r15224
mc23_13p6TeV.801676.Py8_gammajet_direct_DP3000_inf_FullSW.recon.AOD.e8514_s4162_r14622
mc23_13p6TeV.801676.Py8_gammajet_direct_DP3000_inf_FullSW.recon.AOD.e8514_s4159_r15224
